blog - Managing data with tidyverse
…
flights data를 선택 후, group_by 한 후, summarise를 수행

각 function의 기능이 무엇인지 몰라도 대략적인 흐름 파악 가능

flights %>% 
  group_by(year, month, day) %>% 
  summarise(delay = mean(dep_delay), na.rm = TRUE)

`summarise()` has grouped output by 'year', 'month'. You can override using the
`.groups` argument.

# A tibble: 365 × 5
# Groups:   year, month [12]
    year month   day delay na.rm
   <int> <int> <int> <dbl> <lgl>
 1  2013     1     1    NA TRUE 
 2  2013     1     2    NA TRUE 
 3  2013     1     3    NA TRUE 
 4  2013     1     4    NA TRUE 
 5  2013     1     5    NA TRUE 
 6  2013     1     6    NA TRUE 
 7  2013     1     7    NA TRUE 
 8  2013     1     8    NA TRUE 
 9  2013     1     9    NA TRUE 
10  2013     1    10    NA TRUE 
# … with 355 more rows
…
`summarise()` has grouped output by 'year', 'month'. You can override using the
`.groups` argument.

4. dplyr 패키지에 포함된 유용한 명령어들

4-1 select() : 열 방향 선택

데이터에서 특정 컬럼을 선택하고 싶을 때 사용

선언된 순서대로 컬럼을 정렬

flights %>% select(year, month, day)

# A tibble: 336,776 × 3
    year month   day
   <int> <int> <int>
 1  2013     1     1
 2  2013     1     1
 3  2013     1     1
 4  2013     1     1
 5  2013     1     1
 6  2013     1     1
 7  2013     1     1
 8  2013     1     1
 9  2013     1     1
10  2013     1     1
# … with 336,766 more rows

# 컬럼에 띄어쓰기가 존재할 때
flights$`not use` <- 0

# 컬럼 이름에 되도록 띄어쓰기 사용 X
flights %>%  select(`not use`)

# A tibble: 336,776 × 1
   `not use`
       <dbl>
 1         0
 2         0
 3         0
 4         0
 5         0
 6         0
 7         0
 8         0
 9         0
10         0
# … with 336,766 more rows

# 해당 컬럼 삭제
flights$`not use` <- NULL

4-2 mutate() : 새로운 컬럼을 만들거나 계산하고 싶을 때

편의성을 위해 일부 데이터만 추출

flight_sample <- flights %>% select(year:day, ends_with("delay"), distance, air_time)
flight_sample

# A tibble: 336,776 × 7
    year month   day dep_delay arr_delay distance air_time
   <int> <int> <int>     <dbl>     <dbl>    <dbl>    <dbl>
 1  2013     1     1         2        11     1400      227
 2  2013     1     1         4        20     1416      227
 3  2013     1     1         2        33     1089      160
 4  2013     1     1        -1       -18     1576      183
 5  2013     1     1        -6       -25      762      116
 6  2013     1     1        -4        12      719      150
 7  2013     1     1        -5        19     1065      158
 8  2013     1     1        -3       -14      229       53
 9  2013     1     1        -3        -8      944      140
10  2013     1     1        -2         8      733      138
# … with 336,766 more rows

각 컬럼간의 계산으로 새로운 열(Column)을 만듬

flight_sample$net_delay <-
  flight_sample$arr_delay - flight_sample$dep_delay

flight_sample$speed <- flight_sample$distance/flight_sample$air_time*60

# mutate 사용하여 구현
flight_sample %>% mutate(net_delay = arr_delay - dep_delay,
                         speed = distance/air_time*60)

# A tibble: 336,776 × 9
    year month   day dep_delay arr_delay distance air_time net_delay speed
   <int> <int> <int>     <dbl>     <dbl>    <dbl>    <dbl>     <dbl> <dbl>
 1  2013     1     1         2        11     1400      227         9  370.
 2  2013     1     1         4        20     1416      227        16  374.
 3  2013     1     1         2        33     1089      160        31  408.
 4  2013     1     1        -1       -18     1576      183       -17  517.
 5  2013     1     1        -6       -25      762      116       -19  394.
 6  2013     1     1        -4        12      719      150        16  288.
 7  2013     1     1        -5        19     1065      158        24  404.
 8  2013     1     1        -3       -14      229       53       -11  259.
 9  2013     1     1        -3        -8      944      140        -5  405.
10  2013     1     1        -2         8      733      138        10  319.
# … with 336,766 more rows
…
!x
x가 아니다

x | y
x이거나 y이다

x & y
x이고 y이다

isTRUE(x)
x가 TRUE이다

flights %>% filter(month==1) # 1월 데이터만 추출

# A tibble: 27,004 × 19
    year month   day dep_time sched_de…¹ dep_d…² arr_t…³ sched…⁴ arr_d…⁵ carrier
   <int> <int> <int>    <int>      <int>   <dbl>   <int>   <int>   <dbl> <chr>  
 1  2013     1     1      517        515       2     830     819      11 UA     
 2  2013     1     1      533        529       4     850     830      20 UA     
 3  2013     1     1      542        540       2     923     850      33 AA     
 4  2013     1     1      544        545      -1    1004    1022     -18 B6     
 5  2013     1     1      554        600      -6     812     837     -25 DL     
 6  2013     1     1      554        558      -4     740     728      12 UA     
 7  2013     1     1      555        600      -5     913     854      19 B6     
 8  2013     1     1      557        600      -3     709     723     -14 EV     
 9  2013     1     1      557        600      -3     838     846      -8 B6     
10  2013     1     1      558        600      -2     753     745       8 AA     
# … with 26,994 more rows, 9 more variables: flight <int>, tailnum <chr>,
#   origin <chr>, dest <chr>, air_time <dbl>, distance <dbl>, hour <dbl>,
#   minute <dbl>, time_hour <dttm>, and abbreviated variable names
#   ¹​sched_dep_time, ²​dep_delay, ³​arr_time, ⁴​sched_arr_time, ⁵​arr_delay

flights %>% filter(month==12, day == 1) # 12월 1일 데이터만 추출

# A tibble: 987 × 19
    year month   day dep_time sched_de…¹ dep_d…² arr_t…³ sched…⁴ arr_d…⁵ carrier
   <int> <int> <int>    <int>      <int>   <dbl>   <int>   <int>   <dbl> <chr>  
 1  2013    12     1       13       2359      14     446     445       1 B6     
 2  2013    12     1       17       2359      18     443     437       6 B6     
 3  2013    12     1      453        500      -7     636     651     -15 US     
 4  2013    12     1      520        515       5     749     808     -19 UA     
 5  2013    12     1      536        540      -4     845     850      -5 AA     
 6  2013    12     1      540        550     -10    1005    1027     -22 B6     
 7  2013    12     1      541        545      -4     734     755     -21 EV     
 8  2013    12     1      546        545       1     826     835      -9 UA     
 9  2013    12     1      549        600     -11     648     659     -11 US     
10  2013    12     1      550        600     -10     825     854     -29 B6     
# … with 977 more rows, 9 more variables: flight <int>, tailnum <chr>,
#   origin <chr>, dest <chr>, air_time <dbl>, distance <dbl>, hour <dbl>,
#   minute <dbl>, time_hour <dttm>, and abbreviated variable names
#   ¹​sched_dep_time, ²​dep_delay, ³​arr_time, ⁴​sched_arr_time, ⁵​arr_delay
4-4 bind_rows()

두 데이터를 행방향으로 묶음

데이터를 아래로 붙임

filter()를 사용한 subset 추출

jan <- flights %>% filter(month == 1)
feb <- flights %>% filter(month == 2)
janfeb <- bind_rows(jan, feb) # 1번 방법
janfeb <- jan %>% bind_rows(feb) # 2번 방법
flights %>% filter(month %in% c(1,2))

# A tibble: 51,955 × 19
    year month   day dep_time sched_de…¹ dep_d…² arr_t…³ sched…⁴ arr_d…⁵ carrier
   <int> <int> <int>    <int>      <int>   <dbl>   <int>   <int>   <dbl> <chr>  
 1  2013     1     1      517        515       2     830     819      11 UA     
 2  2013     1     1      533        529       4     850     830      20 UA     
 3  2013     1     1      542        540       2     923     850      33 AA     
 4  2013     1     1      544        545      -1    1004    1022     -18 B6     
 5  2013     1     1      554        600      -6     812     837     -25 DL     
 6  2013     1     1      554        558      -4     740     728      12 UA     
 7  2013     1     1      555        600      -5     913     854      19 B6     
 8  2013     1     1      557        600      -3     709     723     -14 EV     
 9  2013     1     1      557        600      -3     838     846      -8 B6     
10  2013     1     1      558        600      -2     753     745       8 AA     
# … with 51,945 more rows, 9 more variables: flight <int>, tailnum <chr>,
#   origin <chr>, dest <chr>, air_time <dbl>, distance <dbl>, hour <dbl>,
#   minute <dbl>, time_hour <dttm>, and abbreviated variable names
#   ¹​sched_dep_time, ²​dep_delay, ³​arr_time, ⁴​sched_arr_time, ⁵​arr_delay

4-5 arrange() : 데이터 정렬

지정되는 컬럼 기준으로 오름차순 정렬

# 오름차순 정렬
flights %>% arrange(dep_delay)

# A tibble: 336,776 × 19
    year month   day dep_time sched_de…¹ dep_d…² arr_t…³ sched…⁴ arr_d…⁵ carrier
   <int> <int> <int>    <int>      <int>   <dbl>   <int>   <int>   <dbl> <chr>  
 1  2013    12     7     2040       2123     -43      40    2352      48 B6     
 2  2013     2     3     2022       2055     -33    2240    2338     -58 DL     
 3  2013    11    10     1408       1440     -32    1549    1559     -10 EV     
 4  2013     1    11     1900       1930     -30    2233    2243     -10 DL     
 5  2013     1    29     1703       1730     -27    1947    1957     -10 F9     
 6  2013     8     9      729        755     -26    1002     955       7 MQ     
 7  2013    10    23     1907       1932     -25    2143    2143       0 EV     
 8  2013     3    30     2030       2055     -25    2213    2250     -37 MQ     
 9  2013     3     2     1431       1455     -24    1601    1631     -30 9E     
10  2013     5     5      934        958     -24    1225    1309     -44 B6     
# … with 336,766 more rows, 9 more variables: flight <int>, tailnum <chr>,
#   origin <chr>, dest <chr>, air_time <dbl>, distance <dbl>, hour <dbl>,
#   minute <dbl>, time_hour <dttm>, and abbreviated variable names
#   ¹​sched_dep_time, ²​dep_delay, ³​arr_time, ⁴​sched_arr_time, ⁵​arr_delay

# 내림차순 정렬
flights %>% arrange(-dep_delay)

# A tibble: 336,776 × 19
    year month   day dep_time sched_de…¹ dep_d…² arr_t…³ sched…⁴ arr_d…⁵ carrier
   <int> <int> <int>    <int>      <int>   <dbl>   <int>   <int>   <dbl> <chr>  
 1  2013     1     9      641        900    1301    1242    1530    1272 HA     
 2  2013     6    15     1432       1935    1137    1607    2120    1127 MQ     
 3  2013     1    10     1121       1635    1126    1239    1810    1109 MQ     
 4  2013     9    20     1139       1845    1014    1457    2210    1007 AA     
 5  2013     7    22      845       1600    1005    1044    1815     989 MQ     
 6  2013     4    10     1100       1900     960    1342    2211     931 DL     
 7  2013     3    17     2321        810     911     135    1020     915 DL     
 8  2013     6    27      959       1900     899    1236    2226     850 DL     
 9  2013     7    22     2257        759     898     121    1026     895 DL     
10  2013    12     5      756       1700     896    1058    2020     878 AA     
# … with 336,766 more rows, 9 more variables: flight <int>, tailnum <chr>,
#   origin <chr>, dest <chr>, air_time <dbl>, distance <dbl>, hour <dbl>,
#   minute <dbl>, time_hour <dttm>, and abbreviated variable names
#   ¹​sched_dep_time, ²​dep_delay, ³​arr_time, ⁴​sched_arr_time, ⁵​arr_delay
…
4-7 left_join()

# 특정 컬럼만 추출
flight_sample <- flights %>% select(year:day, origin, carrier)
flight_sample

# A tibble: 336,776 × 5
    year month   day origin carrier
   <int> <int> <int> <chr>  <chr>  
 1  2013     1     1 EWR    UA     
 2  2013     1     1 LGA    UA     
 3  2013     1     1 JFK    AA     
 4  2013     1     1 JFK    B6     
 5  2013     1     1 LGA    DL     
 6  2013     1     1 EWR    UA     
 7  2013     1     1 EWR    B6     
 8  2013     1     1 LGA    EV     
 9  2013     1     1 JFK    B6     
10  2013     1     1 LGA    AA     
# … with 336,766 more rows
…
두 데이터를 특정한 key value를 기준으로 좌우로 붙이고 싶을 때 left_join()을 사용

flight_sample %>% left_join(airlines, by = "carrier")

# A tibble: 336,776 × 6
    year month   day origin carrier name                    
   <int> <int> <int> <chr>  <chr>   <chr>                   
 1  2013     1     1 EWR    UA      United Air Lines Inc.   
 2  2013     1     1 LGA    UA      United Air Lines Inc.   
 3  2013     1     1 JFK    AA      American Airlines Inc.  
 4  2013     1     1 JFK    B6      JetBlue Airways         
 5  2013     1     1 LGA    DL      Delta Air Lines Inc.    
 6  2013     1     1 EWR    UA      United Air Lines Inc.   
 7  2013     1     1 EWR    B6      JetBlue Airways         
 8  2013     1     1 LGA    EV      ExpressJet Airlines Inc.
 9  2013     1     1 JFK    B6      JetBlue Airways         
10  2013     1     1 LGA    AA      American Airlines Inc.  
# … with 336,766 more rows

Key 값의 컬럼 이름이 다를 경우

colnames(airlines)[1] <- "company_name"

flight_sample %>% left_join(airlines, by = c("carrier" = "company_name"))

# A tibble: 336,776 × 6
    year month   day origin carrier name                    
   <int> <int> <int> <chr>  <chr>   <chr>                   
 1  2013     1     1 EWR    UA      United Air Lines Inc.   
 2  2013     1     1 LGA    UA      United Air Lines Inc.   
 3  2013     1     1 JFK    AA      American Airlines Inc.  
 4  2013     1     1 JFK    B6      JetBlue Airways         
 5  2013     1     1 LGA    DL      Delta Air Lines Inc.    
 6  2013     1     1 EWR    UA      United Air Lines Inc.   
 7  2013     1     1 EWR    B6      JetBlue Airways         
 8  2013     1     1 LGA    EV      ExpressJet Airlines Inc.
 9  2013     1     1 JFK    B6      JetBlue Airways         
10  2013     1     1 LGA    AA      American Airlines Inc.  
# … with 336,766 more rows
