1_wjc - Data transformation
…
nycflights13

flights

# A tibble: 336,776 × 19
    year month   day dep_time sched_de…¹ dep_d…² arr_t…³ sched…⁴ arr_d…⁵ carrier
   <int> <int> <int>    <int>      <int>   <dbl>   <int>   <int>   <dbl> <chr>  
 1  2013     1     1      517        515       2     830     819      11 UA     
 2  2013     1     1      533        529       4     850     830      20 UA     
 3  2013     1     1      542        540       2     923     850      33 AA     
 4  2013     1     1      544        545      -1    1004    1022     -18 B6     
 5  2013     1     1      554        600      -6     812     837     -25 DL     
 6  2013     1     1      554        558      -4     740     728      12 UA     
 7  2013     1     1      555        600      -5     913     854      19 B6     
 8  2013     1     1      557        600      -3     709     723     -14 EV     
 9  2013     1     1      557        600      -3     838     846      -8 B6     
10  2013     1     1      558        600      -2     753     745       8 AA     
# … with 336,766 more rows, 9 more variables: flight <int>, tailnum <chr>,
#   origin <chr>, dest <chr>, air_time <dbl>, distance <dbl>, hour <dbl>,
#   minute <dbl>, time_hour <dttm>, and abbreviated variable names
#   ¹​sched_dep_time, ²​dep_delay, ³​arr_time, ⁴​sched_arr_time, ⁵​arr_delay
…
df2 %>% drop_na()

# A tibble: 1 × 2
      x y    
  <dbl> <chr>
1     1 a    

df2$y <- NULL

Arrange rows with arrange()

flights %>% arrange(dep_time)

# A tibble: 336,776 × 19
    year month   day dep_time sched_de…¹ dep_d…² arr_t…³ sched…⁴ arr_d…⁵ carrier
   <int> <int> <int>    <int>      <int>   <dbl>   <int>   <int>   <dbl> <chr>  
 1  2013     1    13        1       2249      72     108    2357      71 B6     
 2  2013     1    31        1       2100     181     124    2225     179 WN     
 3  2013    11    13        1       2359       2     442     440       2 B6     
 4  2013    12    16        1       2359       2     447     437      10 B6     
 5  2013    12    20        1       2359       2     430     440     -10 B6     
 6  2013    12    26        1       2359       2     437     440      -3 B6     
 7  2013    12    30        1       2359       2     441     437       4 B6     
 8  2013     2    11        1       2100     181     111    2225     166 WN     
 9  2013     2    24        1       2245      76     121    2354      87 B6     
10  2013     3     8        1       2355       6     431     440      -9 B6     
# … with 336,766 more rows, 9 more variables: flight <int>, tailnum <chr>,
#   origin <chr>, dest <chr>, air_time <dbl>, distance <dbl>, hour <dbl>,
#   minute <dbl>, time_hour <dttm>, and abbreviated variable names
#   ¹​sched_dep_time, ²​dep_delay, ³​arr_time, ⁴​sched_arr_time, ⁵​arr_delay
…
arrange(df, desc(x))

# A tibble: 3 × 1
      x
  <dbl>
1     5
2     2
3    NA

Select columns with select()

flights %>% select(year, month, day)

# A tibble: 336,776 × 3
    year month   day
   <int> <int> <int>
 1  2013     1     1
 2  2013     1     1
 3  2013     1     1
 4  2013     1     1
 5  2013     1     1
 6  2013     1     1
 7  2013     1     1
 8  2013     1     1
 9  2013     1     1
10  2013     1     1
# … with 336,766 more rows

flights %>% select(year:day)

# A tibble: 336,776 × 3
    year month   day
   <int> <int> <int>
 1  2013     1     1
 2  2013     1     1
 3  2013     1     1
 4  2013     1     1
 5  2013     1     1
 6  2013     1     1
 7  2013     1     1
 8  2013     1     1
 9  2013     1     1
10  2013     1     1
# … with 336,766 more rows

select(flights, -(year:day))

# A tibble: 336,776 × 16
   dep_t…¹ sched…² dep_d…³ arr_t…⁴ sched…⁵ arr_d…⁶ carrier flight tailnum origin
     <int>   <int>   <dbl>   <int>   <int>   <dbl> <chr>    <int> <chr>   <chr> 
 1     517     515       2     830     819      11 UA        1545 N14228  EWR   
 2     533     529       4     850     830      20 UA        1714 N24211  LGA   
 3     542     540       2     923     850      33 AA        1141 N619AA  JFK   
 4     544     545      -1    1004    1022     -18 B6         725 N804JB  JFK   
 5     554     600      -6     812     837     -25 DL         461 N668DN  LGA   
 6     554     558      -4     740     728      12 UA        1696 N39463  EWR   
 7     555     600      -5     913     854      19 B6         507 N516JB  EWR   
 8     557     600      -3     709     723     -14 EV        5708 N829AS  LGA   
 9     557     600      -3     838     846      -8 B6          79 N593JB  JFK   
10     558     600      -2     753     745       8 AA         301 N3ALAA  LGA   
# … with 336,766 more rows, 6 more variables: dest <chr>, air_time <dbl>,
#   distance <dbl>, hour <dbl>, minute <dbl>, time_hour <dttm>, and abbreviated
#   variable names ¹​dep_time, ²​sched_dep_time, ³​dep_delay, ⁴​arr_time,
#   ⁵​sched_arr_time, ⁶​arr_delay

There are a number of helper functions you can use within select(): - starts_with("abc"): matches names that begin with “abc”. - ends_with("time"): matches names that end with “xyz”. - contains("time"): matches names that contain “ijk”. - num_range("x", 1:3): matchesx1,x2, andx3`.

c("x1", "x2", "x3", "y1", "y2", "y3", "y4")

[1] "x1" "x2" "x3" "y1" "y2" "y3" "y4"

flights %>% select(new_year = year)

# A tibble: 336,776 × 1
   new_year
      <int>
 1     2013
 2     2013
 3     2013
 4     2013
 5     2013
 6     2013
 7     2013
 8     2013
 9     2013
10     2013
# … with 336,766 more rows

flights %>% rename(tail_num = tailnum, new_year = year)

# A tibble: 336,776 × 19
   new_year month   day dep_time sched…¹ dep_d…² arr_t…³ sched…⁴ arr_d…⁵ carrier
      <int> <int> <int>    <int>   <int>   <dbl>   <int>   <int>   <dbl> <chr>  
 1     2013     1     1      517     515       2     830     819      11 UA     
 2     2013     1     1      533     529       4     850     830      20 UA     
 3     2013     1     1      542     540       2     923     850      33 AA     
 4     2013     1     1      544     545      -1    1004    1022     -18 B6     
 5     2013     1     1      554     600      -6     812     837     -25 DL     
 6     2013     1     1      554     558      -4     740     728      12 UA     
 7     2013     1     1      555     600      -5     913     854      19 B6     
 8     2013     1     1      557     600      -3     709     723     -14 EV     
 9     2013     1     1      557     600      -3     838     846      -8 B6     
10     2013     1     1      558     600      -2     753     745       8 AA     
# … with 336,766 more rows, 9 more variables: flight <int>, tail_num <chr>,
#   origin <chr>, dest <chr>, air_time <dbl>, distance <dbl>, hour <dbl>,
#   minute <dbl>, time_hour <dttm>, and abbreviated variable names
#   ¹​sched_dep_time, ²​dep_delay, ³​arr_time, ⁴​sched_arr_time, ⁵​arr_delay

# 컬럼 위치 이동 (time_hour, air_time 맨 앞으로 이동)
flights %>% select(time_hour, air_time, everything())

# A tibble: 336,776 × 19
   time_hour           air_t…¹  year month   day dep_t…² sched…³ dep_d…⁴ arr_t…⁵
   <dttm>                <dbl> <int> <int> <int>   <int>   <int>   <dbl>   <int>
 1 2013-01-01 05:00:00     227  2013     1     1     517     515       2     830
 2 2013-01-01 05:00:00     227  2013     1     1     533     529       4     850
 3 2013-01-01 05:00:00     160  2013     1     1     542     540       2     923
 4 2013-01-01 05:00:00     183  2013     1     1     544     545      -1    1004
 5 2013-01-01 06:00:00     116  2013     1     1     554     600      -6     812
 6 2013-01-01 05:00:00     150  2013     1     1     554     558      -4     740
 7 2013-01-01 06:00:00     158  2013     1     1     555     600      -5     913
 8 2013-01-01 06:00:00      53  2013     1     1     557     600      -3     709
 9 2013-01-01 06:00:00     140  2013     1     1     557     600      -3     838
10 2013-01-01 06:00:00     138  2013     1     1     558     600      -2     753
# … with 336,766 more rows, 10 more variables: sched_arr_time <int>,
#   arr_delay <dbl>, carrier <chr>, flight <int>, tailnum <chr>, origin <chr>,
#   dest <chr>, distance <dbl>, hour <dbl>, minute <dbl>, and abbreviated
#   variable names ¹​air_time, ²​dep_time, ³​sched_dep_time, ⁴​dep_delay, ⁵​arr_time

contains

flights %>% select(contains("time"))

# A tibble: 336,776 × 6
   dep_time sched_dep_time arr_time sched_arr_time air_time time_hour          
      <int>          <int>    <int>          <int>    <dbl> <dttm>             
 1      517            515      830            819      227 2013-01-01 05:00:00
 2      533            529      850            830      227 2013-01-01 05:00:00
 3      542            540      923            850      160 2013-01-01 05:00:00
 4      544            545     1004           1022      183 2013-01-01 05:00:00
 5      554            600      812            837      116 2013-01-01 06:00:00
 6      554            558      740            728      150 2013-01-01 05:00:00
 7      555            600      913            854      158 2013-01-01 06:00:00
 8      557            600      709            723       53 2013-01-01 06:00:00
 9      557            600      838            846      140 2013-01-01 06:00:00
10      558            600      753            745      138 2013-01-01 06:00:00
# … with 336,766 more rows

Add new variables with mutate()

# transmute 사용
flights %>% transmute(
  gain = dep_delay - arr_delay,
  hours = air_time / 60,
  gain_per_hour = gain / hours
)

# A tibble: 336,776 × 3
    gain hours gain_per_hour
   <dbl> <dbl>         <dbl>
 1    -9 3.78          -2.38
 2   -16 3.78          -4.23
 3   -31 2.67         -11.6 
 4    17 3.05           5.57
 5    19 1.93           9.83
 6   -16 2.5           -6.4 
 7   -24 2.63          -9.11
 8    11 0.883         12.5 
 9     5 2.33           2.14
10   -10 2.3           -4.35
# … with 336,766 more rows

# mutate & select 사용
flights %>%
  mutate(
    gain = dep_delay - arr_delay,
    hours = air_time / 60,
    gain_per_hour = gain / hours
  ) %>%
  select(gain, hour, gain_per_hour)

# A tibble: 336,776 × 3
    gain  hour gain_per_hour
   <dbl> <dbl>         <dbl>
 1    -9     5         -2.38
 2   -16     5         -4.23
 3   -31     5        -11.6 
 4    17     5          5.57
 5    19     6          9.83
 6   -16     5         -6.4 
 7   -24     6         -9.11
 8    11     6         12.5 
 9     5     6          2.14
10   -10     6         -4.35
# … with 336,766 more rows

# 새로운 컬럼을 원하는 위치에 생성
flights %>%
  mutate(
    gain = dep_delay - arr_delay,
    hours = air_time / 60,
    gain_per_hour = gain / hours,
    .after = year
  )

# A tibble: 336,776 × 22
    year  gain hours gain_…¹ month   day dep_t…² sched…³ dep_d…⁴ arr_t…⁵ sched…⁶
   <int> <dbl> <dbl>   <dbl> <int> <int>   <int>   <int>   <dbl>   <int>   <int>
 1  2013    -9 3.78    -2.38     1     1     517     515       2     830     819
 2  2013   -16 3.78    -4.23     1     1     533     529       4     850     830
 3  2013   -31 2.67   -11.6      1     1     542     540       2     923     850
 4  2013    17 3.05     5.57     1     1     544     545      -1    1004    1022
 5  2013    19 1.93     9.83     1     1     554     600      -6     812     837
 6  2013   -16 2.5     -6.4      1     1     554     558      -4     740     728
 7  2013   -24 2.63    -9.11     1     1     555     600      -5     913     854
 8  2013    11 0.883   12.5      1     1     557     600      -3     709     723
 9  2013     5 2.33     2.14     1     1     557     600      -3     838     846
10  2013   -10 2.3     -4.35     1     1     558     600      -2     753     745
# … with 336,766 more rows, 11 more variables: arr_delay <dbl>, carrier <chr>,
#   flight <int>, tailnum <chr>, origin <chr>, dest <chr>, air_time <dbl>,
#   distance <dbl>, hour <dbl>, minute <dbl>, time_hour <dttm>, and abbreviated
#   variable names ¹​gain_per_hour, ²​dep_time, ³​sched_dep_time, ⁴​dep_delay,
#   ⁵​arr_time, ⁶​sched_arr_time

Useful creation functions

transmute(flights,
          dep_time,
          hour = dep_time %/% 100,
          minute = dep_time %% 100)

# A tibble: 336,776 × 3
   dep_time  hour minute
      <int> <dbl>  <dbl>
 1      517     5     17
 2      533     5     33
 3      542     5     42
 4      544     5     44
 5      554     5     54
 6      554     5     54
 7      555     5     55
 8      557     5     57
 9      557     5     57
10      558     5     58
# … with 336,766 more rows

Missing values

flights %>% 
  group_by(year, month, day) %>% 
  summarise(mean = mean(dep_delay))

`summarise()` has grouped output by 'year', 'month'. You can override using the
`.groups` argument.

# A tibble: 365 × 4
# Groups:   year, month [12]
    year month   day  mean
   <int> <int> <int> <dbl>
 1  2013     1     1    NA
 2  2013     1     2    NA
 3  2013     1     3    NA
 4  2013     1     4    NA
 5  2013     1     5    NA
 6  2013     1     6    NA
 7  2013     1     7    NA
 8  2013     1     8    NA
 9  2013     1     9    NA
10  2013     1    10    NA
# … with 355 more rows

flights %>% 
  group_by(year, month, day) %>% 
  summarise(mean = mean(dep_delay), na.rm = TRUE)

`summarise()` has grouped output by 'year', 'month'. You can override using the
`.groups` argument.

# A tibble: 365 × 5
# Groups:   year, month [12]
    year month   day  mean na.rm
   <int> <int> <int> <dbl> <lgl>
 1  2013     1     1    NA TRUE 
 2  2013     1     2    NA TRUE 
 3  2013     1     3    NA TRUE 
 4  2013     1     4    NA TRUE 
 5  2013     1     5    NA TRUE 
 6  2013     1     6    NA TRUE 
 7  2013     1     7    NA TRUE 
 8  2013     1     8    NA TRUE 
 9  2013     1     9    NA TRUE 
10  2013     1    10    NA TRUE 
# … with 355 more rows
…
# drop_na 사용
not_cancelled_drop <- flights %>% 
  drop_na(dep_delay, arr_delay)

not_cancelled %>% 
  group_by(year, month, day) %>% 
  summarise(mean = mean(dep_delay))

`summarise()` has grouped output by 'year', 'month'. You can override using the
`.groups` argument.

# A tibble: 365 × 4
# Groups:   year, month [12]
    year month   day  mean
   <int> <int> <int> <dbl>
 1  2013     1     1 11.4 
 2  2013     1     2 13.7 
 3  2013     1     3 10.9 
 4  2013     1     4  8.97
 5  2013     1     5  5.73
 6  2013     1     6  7.15
 7  2013     1     7  5.42
 8  2013     1     8  2.56
 9  2013     1     9  2.30
10  2013     1    10  2.84
# … with 355 more rows

Grouping by multiple variables

daily <- flights %>% group_by(year, month, day)
flights

# A tibble: 336,776 × 19
    year month   day dep_time sched_de…¹ dep_d…² arr_t…³ sched…⁴ arr_d…⁵ carrier
   <int> <int> <int>    <int>      <int>   <dbl>   <int>   <int>   <dbl> <chr>  
 1  2013     1     1      517        515       2     830     819      11 UA     
 2  2013     1     1      533        529       4     850     830      20 UA     
 3  2013     1     1      542        540       2     923     850      33 AA     
 4  2013     1     1      544        545      -1    1004    1022     -18 B6     
 5  2013     1     1      554        600      -6     812     837     -25 DL     
 6  2013     1     1      554        558      -4     740     728      12 UA     
 7  2013     1     1      555        600      -5     913     854      19 B6     
 8  2013     1     1      557        600      -3     709     723     -14 EV     
 9  2013     1     1      557        600      -3     838     846      -8 B6     
10  2013     1     1      558        600      -2     753     745       8 AA     
# … with 336,766 more rows, 9 more variables: flight <int>, tailnum <chr>,
#   origin <chr>, dest <chr>, air_time <dbl>, distance <dbl>, hour <dbl>,
#   minute <dbl>, time_hour <dttm>, and abbreviated variable names
#   ¹​sched_dep_time, ²​dep_delay, ³​arr_time, ⁴​sched_arr_time, ⁵​arr_delay

daily

# A tibble: 336,776 × 19
# Groups:   year, month, day [365]
    year month   day dep_time sched_de…¹ dep_d…² arr_t…³ sched…⁴ arr_d…⁵ carrier
   <int> <int> <int>    <int>      <int>   <dbl>   <int>   <int>   <dbl> <chr>  
 1  2013     1     1      517        515       2     830     819      11 UA     
 2  2013     1     1      533        529       4     850     830      20 UA     
 3  2013     1     1      542        540       2     923     850      33 AA     
 4  2013     1     1      544        545      -1    1004    1022     -18 B6     
 5  2013     1     1      554        600      -6     812     837     -25 DL     
 6  2013     1     1      554        558      -4     740     728      12 UA     
 7  2013     1     1      555        600      -5     913     854      19 B6     
 8  2013     1     1      557        600      -3     709     723     -14 EV     
 9  2013     1     1      557        600      -3     838     846      -8 B6     
10  2013     1     1      558        600      -2     753     745       8 AA     
# … with 336,766 more rows, 9 more variables: flight <int>, tailnum <chr>,
#   origin <chr>, dest <chr>, air_time <dbl>, distance <dbl>, hour <dbl>,
#   minute <dbl>, time_hour <dttm>, and abbreviated variable names
#   ¹​sched_dep_time, ²​dep_delay, ³​arr_time, ⁴​sched_arr_time, ⁵​arr_delay

(per_day   <- daily %>% summarise(flights = n()))

`summarise()` has grouped output by 'year', 'month'. You can override using the
`.groups` argument.

# A tibble: 365 × 4
# Groups:   year, month [12]
    year month   day flights
   <int> <int> <int>   <int>
 1  2013     1     1     842
 2  2013     1     2     943
 3  2013     1     3     914
 4  2013     1     4     915
 5  2013     1     5     720
 6  2013     1     6     832
 7  2013     1     7     933
 8  2013     1     8     899
 9  2013     1     9     902
10  2013     1    10     932
# … with 355 more rows
…
Grouped mutates (and filters)

Find the worst members of each group

년/월/일자별 가장 arr_delay가 높은 10개 비행 추출

flights %>%
  group_by(year, month, day) %>%
  filter(rank(desc(arr_delay)) < 11) %>%
  select(year, month, day, arr_delay) %>%
  arrange(year, month, day, desc(arr_delay))

# A tibble: 3,691 × 4
# Groups:   year, month, day [365]
    year month   day arr_delay
   <int> <int> <int>     <dbl>
 1  2013     1     1       851
 2  2013     1     1       456
 3  2013     1     1       338
 4  2013     1     1       263
 5  2013     1     1       250
 6  2013     1     1       246
 7  2013     1     1       222
 8  2013     1     1       191
 9  2013     1     1       174
10  2013     1     1       166
# … with 3,681 more rows

# slice_max, slice_min 활용
flights %>% 
  group_by(year, month, day) %>% 
  slice_max(arr_delay, n = 10) %>% 
  select(year, month, day, arr_delay)

# A tibble: 3,697 × 4
# Groups:   year, month, day [365]
    year month   day arr_delay
   <int> <int> <int>     <dbl>
 1  2013     1     1       851
 2  2013     1     1       456
 3  2013     1     1       338
 4  2013     1     1       263
 5  2013     1     1       250
 6  2013     1     1       246
 7  2013     1     1       222
 8  2013     1     1       191
 9  2013     1     1       174
10  2013     1     1       166
# … with 3,687 more rows

# Quiz: 연도와 월별로 arr_delay가 가장 큰 3개 날짜 추출
flights %>% 
  group_by(year, month) %>% 
  slice_max(arr_delay, n = 3) %>% 
  select(year, month, day, arr_delay)

# A tibble: 37 × 4
# Groups:   year, month [12]
    year month   day arr_delay
   <int> <int> <int>     <dbl>
 1  2013     1     9      1272
 2  2013     1    10      1109
 3  2013     1     1       851
 4  2013     2    10       834
 5  2013     2    24       773
 6  2013     2    19       767
 7  2013     3    17       915
 8  2013     3    18       784
 9  2013     3    18       506
10  2013     4    10       931
# … with 27 more rows
…
